<?xml version="1.0" encoding="UTF-8" standalone="no"?>
<!DOCTYPE svg PUBLIC "-//W3C//DTD SVG 1.1//EN" "http://www.w3.org/Graphics/SVG/1.1/DTD/svg11.dtd">
<svg width="100%" height="100%" viewBox="0 0 210 307" version="1.1" xmlns="http://www.w3.org/2000/svg" xmlns:xlink="http://www.w3.org/1999/xlink" xml:space="preserve" xmlns:serif="http://www.serif.com/" style="fill-rule:evenodd;clip-rule:evenodd;stroke-linejoin:round;stroke-miterlimit:2;">
    <g transform="matrix(1,0,0,1,-625.226,-172.627)">
        <path d="M719.167,243.054L719.666,242.841C719.666,242.841 721.111,243.981 721.814,245.633C722.818,247.995 722.818,250.285 722.818,250.285L723.175,278.32L722.458,278.889C722.458,278.889 722.174,252.434 722.245,250.07C722.171,248.638 722.024,245.625 719.232,243.405L719.167,243.054Z" style="fill:white;fill-rule:nonzero;"/>
    </g>
    <g transform="matrix(1,0,0,1,-625.226,-172.627)">
        <path d="M777.73,389.109L755.195,400.737L731.684,413.776L719.277,424.349L716.012,434.568L716.99,451.131L703.928,460.998L686.619,471.572L645.8,479.324L632.086,465.579L625.226,435.977L630.78,416.948L641.557,403.909C641.557,403.909 659.188,401.091 660.495,400.034C661.802,398.976 680.743,395.804 680.743,395.804L696.419,400.385L709.237,405.899L720.686,405.391L750.2,383.615L782.955,383.822L777.73,389.109Z" style="fill:rgb(161,111,84);fill-opacity:0.52;fill-rule:nonzero;"/>
    </g>
    <g transform="matrix(1,0,0,1,-625.226,-172.627)">
        <path d="M752.377,386.376C752.377,386.376 760.377,346.246 757.179,337.944C753.976,329.638 753.976,290.894 753.976,290.894L736.379,270.136L743.975,271.174L758.843,286.285L758.015,267.219L771.426,268.758L773.178,304.73L777.977,350.396L785.979,383.607L774.777,387.76L752.377,386.376Z" style="fill:rgb(139,85,56);fill-rule:nonzero;"/>
    </g>
    <g transform="matrix(1,0,0,1,-625.226,-172.627)">
        <path d="M771.579,313.036L784.378,289.508L806.777,263.217L792.377,261.833L781.18,283.972L765.179,304.733L771.579,313.036Z" style="fill:rgb(139,85,56);fill-rule:nonzero;"/>
    </g>
    <g transform="matrix(1,0,0,1,-625.226,-172.627)">
        <path d="M772.478,295.191L770.153,296.952L769.283,283.382L768.41,269.81L771.897,267.8L772.478,295.191ZM758.73,286.055L756.207,286.651L744.293,275.59L748.071,275.088L758.73,286.055Z" style="fill:rgb(161,111,84);fill-rule:nonzero;"/>
    </g>
    <g transform="matrix(1,0,0,1,-625.226,-172.627)">
        <path d="M761.885,274.535C752.233,276.16 742.731,281.73 733.085,280.071C720.315,277.877 707.479,270.507 701.087,260.7C697.147,254.659 696.83,246.484 699.486,239.941C702.363,232.855 705.535,229.428 708.369,222.33C710.637,216.646 703.939,209.835 706.768,204.341C710.328,197.43 729.714,192.478 736.285,187.486C743.088,182.322 747.255,178.155 755.487,174.9C762.296,172.213 770.579,172.12 777.886,173.52C783.247,174.546 787.397,178.279 792.286,180.437C800.15,183.909 812.047,183.427 816.287,190.125C820.162,196.248 819.431,202.229 822.674,208.619C825.293,213.778 829.809,216.981 832.572,222.077C838.026,232.135 830.908,244.259 829.372,255.288C828.147,264.095 827.147,272.911 821.086,280.071C815.451,286.73 804.951,292.173 795.487,291.141C784.981,289.998 781.676,275.635 771.486,273.152C768.365,272.392 765.071,274.003 761.885,274.535Z" style="fill:rgb(0,86,0);fill-rule:nonzero;"/>
    </g>
    <g transform="matrix(1,0,0,1,-625.226,-172.627)">
        <path d="M773.64,308.764L776.837,339.423L780.035,358.52L786.529,383.338L784.392,384.908L780.99,385.483L776.548,358.52L771.608,316.806L771.897,309.518L773.64,308.764Z" style="fill:rgb(161,111,84);fill-rule:nonzero;"/>
    </g>
    <g transform="matrix(1,0,0,1,-625.226,-172.627)">
        <circle cx="742.039" cy="282.138" r="3.796" style="fill:rgb(182,27,17);fill-opacity:0.99;"/>
    </g>
    <g transform="matrix(1,0,0,1,-625.226,-172.627)">
        <circle cx="727.756" cy="278.819" r="3.796" style="fill:rgb(182,27,17);fill-opacity:0.99;"/>
    </g>
    <g transform="matrix(1,0,0,1,-625.226,-172.627)">
        <circle cx="796.442" cy="290.364" r="3.796" style="fill:rgb(182,27,17);fill-opacity:0.99;"/>
    </g>
    <g transform="matrix(1,0,0,1,-625.226,-172.627)">
        <path d="M826.809,269.49L819.213,283.402L805.294,292.258L790.747,291.626L780.625,282.77L774.93,273.912L763.543,273.28L745.832,281.503L723.691,278.34L703.449,266.953L695.857,250.506L699.018,235.956L708.508,222.673L706.609,210.019L709.14,200.531L723.691,194.204L717.364,204.959L715.465,220.141L718.631,231.528L709.773,247.346L715.467,258.097L728.118,266.321L744.565,269.484L747.729,273.912L762.279,268.22L771.769,268.852L783.788,265.054L793.276,270.116L792.643,277.075L798.97,286.566L813.521,282.767L821.112,274.547L826.809,269.49Z" style="fill:rgb(0,67,0);fill-opacity:0.99;fill-rule:nonzero;"/>
    </g>
    <g transform="matrix(0.919801,0.392385,-0.392385,0.919801,-625.226,-172.627)">
        <circle cx="764.997" cy="-72.808" r="3.796" style="fill:rgb(182,27,17);fill-opacity:0.99;"/>
    </g>
    <g transform="matrix(0.919801,0.392385,-0.392385,0.919801,-625.226,-172.627)">
        <circle cx="796.26" cy="-63.561" r="3.796" style="fill:rgb(182,27,17);fill-opacity:0.99;"/>
    </g>
    <g transform="matrix(0.919801,0.392385,-0.392385,0.919801,-625.226,-172.627)">
        <circle cx="810.967" cy="-68.692" r="3.796" style="fill:rgb(182,27,17);fill-opacity:0.99;"/>
    </g>
    <g transform="matrix(1,0,0,1,-625.226,-172.627)">
        <path d="M733.181,222.676L732.549,235.959L744.568,254.305L755.955,254.937L767.974,256.836L782.524,251.773L767.341,251.141L757.222,242.921L747.731,240.386L739.508,230.899L733.181,222.676Z" style="fill:rgb(0,67,0);fill-opacity:0.99;fill-rule:nonzero;"/>
    </g>
    <g transform="matrix(1,0,0,1,-625.226,-172.627)">
        <circle cx="815.238" cy="259.682" r="3.796" style="fill:rgb(182,27,17);fill-opacity:0.99;"/>
    </g>
    <g transform="matrix(1,0,0,1,-625.226,-172.627)">
        <path d="M821.747,251.141L817.948,257.468L805.297,263.16L792.014,261.261L802.134,258.1L811.624,257.468L815.423,251.141L821.747,251.141Z" style="fill:rgb(0,67,0);fill-opacity:0.99;fill-rule:nonzero;"/>
    </g>
    <g transform="matrix(1,0,0,1,-625.226,-172.627)">
        <circle cx="742.306" cy="219.195" r="3.796" style="fill:rgb(182,27,17);fill-opacity:0.99;"/>
    </g>
    <g transform="matrix(1,0,0,1,-625.226,-172.627)">
        <path d="M741.407,198.003L736.977,207.493L739.508,216.349L748.363,223.308L745.203,212.553L740.14,206.226L741.407,198.003Z" style="fill:rgb(0,67,0);fill-opacity:0.99;fill-rule:nonzero;"/>
    </g>
    <g transform="matrix(1,0,0,1,-625.226,-172.627)">
        <circle cx="785.455" cy="239.596" r="3.478" style="fill:rgb(182,27,17);fill-opacity:0.99;"/>
    </g>
    <g transform="matrix(1,0,0,1,-625.226,-172.627)">
        <path d="M808.461,230.899L797.074,239.754L786.319,239.754L776.832,234.694L783.159,235.327L792.014,232.163L798.973,233.43L800.237,235.329L808.461,230.899Z" style="fill:rgb(0,67,0);fill-opacity:0.99;fill-rule:nonzero;"/>
    </g>
    <g transform="matrix(1,0,0,1,-625.226,-172.627)">
        <circle cx="816.684" cy="284.037" r="3.796" style="fill:rgb(182,27,17);fill-opacity:0.99;"/>
    </g>
    <g transform="matrix(1,0,0,1,-625.226,-172.627)">
        <circle cx="802.403" cy="274.864" r="3.796" style="fill:rgb(182,27,17);fill-opacity:0.99;"/>
    </g>
    <g transform="matrix(1,0,0,1,-625.226,-172.627)">
        <circle cx="747.998" cy="272.492" r="3.796" style="fill:rgb(182,27,17);fill-opacity:0.99;"/>
    </g>
    <g transform="matrix(1,0,0,1,-625.226,-172.627)">
        <circle cx="733.714" cy="263.319" r="3.796" style="fill:rgb(182,27,17);fill-opacity:0.99;"/>
    </g>
    <g transform="matrix(0.919801,0.392385,-0.392385,0.919801,-625.226,-172.627)">
        <circle cx="827.408" cy="-57.688" r="3.796" style="fill:rgb(182,27,17);fill-opacity:0.99;"/>
    </g>
    <g transform="matrix(0.919801,0.392385,-0.392385,0.919801,-625.226,-172.627)">
        <circle cx="807.165" cy="-51.361" r="3.796" style="fill:rgb(182,27,17);fill-opacity:0.99;"/>
    </g>
    <g transform="matrix(0.919801,0.392385,-0.392385,0.919801,-625.226,-172.627)">
        <circle cx="842.479" cy="-105.727" r="3.796" style="fill:rgb(182,27,17);fill-opacity:0.99;"/>
    </g>
    <g transform="matrix(1,0,0,1,-625.226,-172.627)">
        <path d="M820.298,226.786L816.5,233.113L803.849,238.805L790.566,236.908L800.685,233.745L810.176,233.113L813.974,226.786L820.298,226.786Z" style="fill:rgb(0,67,0);fill-opacity:0.99;fill-rule:nonzero;"/>
    </g>
    <g transform="matrix(1,0,0,1,-625.226,-172.627)">
        <circle cx="800.955" cy="250.509" r="3.796" style="fill:rgb(182,27,17);fill-opacity:0.99;"/>
    </g>
    <g transform="matrix(1,0,0,1,-625.226,-172.627)">
        <circle cx="711.757" cy="250.036" r="3.796" style="fill:rgb(182,27,17);fill-opacity:0.99;"/>
    </g>
    <g transform="matrix(1,0,0,1,-625.226,-172.627)">
        <circle cx="732.002" cy="248.136" r="3.796" style="fill:rgb(182,27,17);fill-opacity:0.99;"/>
    </g>
    <g transform="matrix(1,0,0,1,-625.226,-172.627)">
        <circle cx="708.86" cy="266.165" r="3.796" style="fill:rgb(182,27,17);fill-opacity:0.99;"/>
    </g>
    <g transform="matrix(1,0,0,1,-625.226,-172.627)">
        <circle cx="826.441" cy="266.641" r="3.796" style="fill:rgb(182,27,17);fill-opacity:0.99;"/>
    </g>
    <g transform="matrix(1,0,0,1,-625.226,-172.627)">
        <circle cx="827.705" cy="246.396" r="3.796" style="fill:rgb(182,27,17);fill-opacity:0.99;"/>
    </g>
    <g transform="matrix(1,0,0,1,-625.226,-172.627)">
        <circle cx="770.505" cy="239.754" r="3.796" style="fill:rgb(182,27,17);fill-opacity:0.99;"/>
    </g>
    <g transform="matrix(1,0,0,1,-625.226,-172.627)">
        <circle cx="798.106" cy="219.986" r="3.478" style="fill:rgb(182,27,17);fill-opacity:0.99;"/>
    </g>
    <g transform="matrix(1,0,0,1,-625.226,-172.627)">
        <circle cx="824.675" cy="223.781" r="3.478" style="fill:rgb(182,27,17);fill-opacity:0.99;"/>
    </g>
    <g transform="matrix(1,0,0,1,-625.226,-172.627)">
        <circle cx="747.499" cy="236.435" r="3.478" style="fill:rgb(182,27,17);fill-opacity:0.99;"/>
    </g>
    <g transform="matrix(1,0,0,1,-625.226,-172.627)">
        <circle cx="715.238" cy="220.618" r="3.478" style="fill:rgb(182,27,17);fill-opacity:0.99;"/>
    </g>
    <g transform="matrix(1,0,0,1,-625.226,-172.627)">
        <circle cx="727.257" cy="211.762" r="3.478" style="fill:rgb(182,27,17);fill-opacity:0.99;"/>
    </g>
    <g transform="matrix(1,0,0,1,-625.226,-172.627)">
        <path d="M747.731,281.509L756.59,292.26L757.222,316.298L762.914,343.502L759.75,377.028L766.165,387.516L750.175,385.767L755.323,361.213L758.486,349.194L755.955,331.481L752.794,306.179L752.159,291.628L743.939,280.874L747.731,281.509ZM759.498,286.424L761.25,287.674L759.997,278.923L759.747,273.671L758.747,275.672L759.498,286.424ZM770.003,296.929L769.751,301.68L773.252,297.677L777.005,291.926L782.504,284.426L781.756,283.674L772.251,295.177L770.003,296.929Z" style="fill:rgb(112,76,55);fill-opacity:0.99;fill-rule:nonzero;"/>
    </g>
</svg>
